-66.619,0.16085,0.017906,-5
-67.183,0.27258,0.016036,-5
-67.161,0.24066,0.016968,-5
-67.158,0.27123,0.015849,-5
-67.407,0.43679,0.01107,-5
-67.385,0.28026,0.016688,-5
-67.331,0.37451,0.013339,-5
-67.301,0.44799,0.010707,-4.9995
-67.239,0.42595,0.011665,-5
-67.033,0.39779,0.012353,-5
-66.79,0.41912,0.011057,-5
-66.346,0.20852,0.017158,-4.9999
-66.099,0.24286,0.014988,-4.9991
-66.325,0.20278,0.017489,-4.8315
-66.527,0.2983,0.014774,-4.776
-66.626,0.21077,0.017785,-4.7056
-66.706,0.092385,0.022004,-4.6344
-67.091,0.20295,0.019798,-4.4798
-67.208,0.2846,0.016861,-4.5715
-67.36,0.1133,0.023261,-4.5022
-67.698,0.1621,0.022494,-4.4969
-67.82,0.13041,0.024274,-4.2651
-68.007,0.23013,0.02136,-4.1561
-67.966,0.33217,0.017009,-4.0559
-67.758,0.24471,0.018017,-3.9213
-67.495,0.22389,0.01588,-3.8916
-67.218,0.20003,0.014,-3.9048
-66.999,0.26047,0.0095316,-3.9246
-66.852,0.30536,0.006244,-3.9019
-66.648,0.27482,0.0056639,-3.9946
-66.666,0.26498,0.0061588,-3.9487
-66.416,0.15298,0.0094066,-3.911
-66.066,0.048747,0.011946,-3.7617
-66.003,0.086115,0.010152,-3.7351
-65.945,0.085924,0.009657,-3.7035
-66.103,0.34714,0.00083145,-3.5475
-65.975,0.10366,0.0087335,-3.4074
-65.922,0.076685,0.0087558,-3.5204
-65.913,0.069532,0.0085696,-3.5571
-65.892,0.0019928,0.010828,-3.5138
-65.945,0.030014,0.010255,-3.4504
-65.766,-0.061439,0.012813,-3.4042
-65.655,-0.058243,0.012808,-3.2027
-65.474,-0.091737,0.012977,-3.242
-65.212,-0.086947,0.012026,-3.1145
-65.207,-0.057143,0.010757,-3.1643
-65.153,0.029407,0.0079663,-3.1513
-65.124,0.11857,0.0051862,-2.9767
-64.988,0.015683,0.0083584,-2.9121
-64.951,0.083711,0.0065241,-2.6092
-64.883,0.041527,0.0082832,-2.4937
-64.915,0.12545,0.0061338,-2.3243
-64.762,0.065044,0.0083896,-2.1543
-64.609,0.055851,0.0083119,-2.2168
-64.507,0.035227,0.0087877,-2.2406
-64.425,0.20552,0.0023881,-2.3398
-64.673,0.10619,0.0076794,-2.259
-64.862,0.0994,0.0088495,-2.2281
-65.025,0.10933,0.0091074,-2.2968
-65.282,0.088688,0.010658,-2.3123
-65.549,0.22104,0.0071351,-2.2253
-65.513,0.23094,0.0065574,-2.2253
-65.782,0.26918,0.0070126,-1.984
-65.839,0.33423,0.0050109,-1.913
-65.767,0.22895,0.0087227,-1.7818
-65.882,0.19393,0.01076,-1.6953
-65.522,0.19791,0.0089262,-1.8445
-65.683,0.25025,0.0082236,-1.6984
-65.678,0.37135,0.0042412,-1.6769
-65.723,0.33579,0.0056412,-1.7615
-65.753,0.25182,0.0094227,-1.7353
-65.852,0.36714,0.0061408,-1.8167
-65.765,0.36869,0.0055416,-1.9738
-65.344,0.37497,0.0034784,-2.331
-64.761,0.28299,0.0041707,-2.712
-64.69,0.37048,0.0014259,-2.8001
-64.438,0.29352,0.0036886,-2.9018
-63.97,0.20513,0.0044988,-3.1202
-63.368,0.070692,0.0060978,-3.326
-62.897,0.16792,0.00031883,-3.5044
-62.366,0.10503,0.00023605,-3.6475
-62.237,0.10713,-0.00036436,-3.669
-61.816,0.19334,-0.0059835,-3.9572
-61.61,0.046648,-0.0027429,-4.1381
-62.091,0.087429,-0.0017019,-3.6054
-62.616,0.13652,-0.0010865,-3.2176
-63.019,0.22051,-0.0035631,-2.815
-63.245,0.31691,-0.0075632,-2.5878
-63.396,0.24037,-0.0047228,-2.4495
-63.681,0.22327,-0.0025434,-2.3136
-63.822,0.14156,0.0013494,-2.2014
-63.789,0.15457,0.0011439,-2.1018
-63.12,0.13121,-0.00099834,-2.2884
-62.624,0.11017,-0.0026438,-2.3664
-62.529,0.049893,-0.00089669,-2.2075
-62.445,0.073295,-0.0017726,-2.0804
-62.385,0.046635,-0.00095147,-2.0284
-62.409,0.22706,-0.0079559,-2.2543
-62.305,0.075515,-0.0028739,-2.1708
-62.45,0.1333,-0.0042649,-2.1225
-62.572,0.14382,-0.0042658,-2.0009
-62.868,0.16945,-0.0038505,-1.7112
-63.02,0.13325,-0.0025785,-1.7143
-63.384,0.10746,-0.00039729,-1.6186
-63.607,0.12694,-6.703e-05,-1.5279
-63.651,0.10565,0.00066684,-1.5237
-63.652,0.14835,-0.0015028,-1.6346
-64.031,0.19707,-0.0016127,-1.5518
-64.18,0.17238,-0.00016368,-1.5023
-64.341,0.13637,0.0018094,-1.4205
-64.387,0.14396,0.001763,-1.4163
-64.395,0.15638,0.0013181,-1.4335
-64.369,0.11119,0.0025597,-1.35
-64.267,0.17886,-0.00077623,-1.3108
-64.077,0.067391,0.0019274,-1.3206
-63.993,0.10983,-7.8731e-05,-1.2404
-63.797,0.099348,-0.0011208,-1.3219
-63.782,0.11758,-0.0025007,-1.4059
-64.035,0.12741,-0.0022773,-1.4939
-64.199,0.14484,-0.00282,-1.5401
-64.427,0.13228,-0.0016303,-1.4717
-64.304,0.12337,-0.0029668,-1.8613
-64.433,0.077386,-0.0010522,-1.6436
-64.593,0.13659,-0.0021904,-1.1851
-64.513,0.011849,0.0016893,-1.112
-64.55,0.12614,-0.0023054,-0.96119
-64.515,0.065907,-0.00057888,-0.80919
-64.486,0.043786,-2.5956e-05,-0.80294
-64.551,0.0093907,0.0012554,-0.82592
-64.676,0.10905,-0.0015159,-0.72039
-64.639,0.11458,-0.0019392,-0.78157
-64.756,0.076197,-4.346e-05,-0.80299
-64.731,0.072444,-0.00033063,-0.89352
-64.761,0.14487,-0.0023267,-0.7506
-64.586,0.097237,-0.0010087,-0.6259
-64.569,0.14758,-0.0028151,-0.72068
-64.611,0.17648,-0.0030122,-0.74933
-64.828,0.15234,-0.0008636,-0.7917
-65.158,0.11576,0.0017316,-0.71111
-65.414,0.13447,0.0024726,-0.55669
-65.804,0.10895,0.005384,-0.35887
-66.098,0.012973,0.010357,-0.18159
-66.127,0.11389,0.0065669,-0.12169
-65.991,0.12302,0.0053634,-0.15217
-65.844,0.14716,0.003678,-0.29152
-65.548,0.14404,0.0023676,-0.46595
-65.321,0.083261,0.0037822,-0.49558
-65.232,0.13129,0.0017873,-0.50564
-65.002,0.072177,0.0029442,-0.5992
-64.89,0.13579,0.00040831,-0.68332
-64.6,0.093033,0.000852,-0.69361
-64.547,0.10876,0.00050144,-0.68963
-64.511,0.053575,0.0028501,-0.74266
-64.456,0.042712,0.0029579,-0.87335
-64.358,0.047587,0.0024089,-1.0497
-64.489,0.38695,-0.0088845,-1.1165
-64.042,-0.013726,0.0032412,-1.2243
-64.087,0.008726,0.0030423,-1.1075
-64.104,-0.017977,0.0042757,-1.0786
-64.144,0.14266,-0.0010986,-1.1773
-64.113,0.1149,-4.4994e-05,-1.2143
-64.059,-0.0070644,0.0037994,-1.241
-64.146,0.095399,7.188e-06,-1.3079
-64.595,0.19254,-0.0029633,-1.5993
-65.134,0.33665,-0.0071797,-1.9278
-65.389,0.29679,-0.0055606,-2.0477
-65.547,0.19495,-0.0020627,-2.1802
-65.748,0.33326,-0.0068415,-2.2883
-66.031,0.19821,-0.0017406,-2.3395
-66.248,0.22493,-0.0023699,-2.4456
-66.353,0.24182,-0.0029309,-2.4731
-66.534,0.25773,-0.0030624,-2.46
-66.711,0.23618,-0.0018253,-2.4459
-66.73,0.18057,-6.7227e-06,-2.3876
-66.779,0.16434,0.00050504,-2.3189
-66.81,0.1463,0.00069588,-2.2702
-67.106,0.23636,-0.0021128,-2.2612
-67.414,0.30459,-0.0040164,-2.2277
-67.523,0.28146,-0.0032044,-2.2195
-67.723,0.39786,-0.0065776,-2.1533
-67.663,0.36935,-0.0060056,-2.1783
-67.777,0.43704,-0.008255,-2.1874
-67.792,0.50805,-0.010455,-2.0754
-67.721,0.42841,-0.0077791,-2.0436
-67.688,0.42379,-0.0075061,-2.0914
-67.757,0.37916,-0.0054198,-2.095
-67.895,0.43229,-0.0067394,-2.1922
-67.756,0.52851,-0.010535,-2.3224
-67.782,0.53139,-0.010003,-2.3097
-67.743,0.54713,-0.010408,-2.3059
-67.633,0.50558,-0.0091016,-2.3248
-67.552,0.47105,-0.007817,-2.3606
-67.481,0.31958,-0.0023622,-2.397
-67.391,0.34986,-0.0038205,-2.4748
-67.564,0.48281,-0.0075251,-2.3938
-67.686,0.53248,-0.0088191,-2.4319
-67.685,0.56197,-0.0096527,-2.455
-67.597,0.59021,-0.011002,-2.6151
-67.644,0.57122,-0.010121,-2.7135
-67.635,0.49891,-0.0077048,-2.7649
-67.501,0.45726,-0.00667,-2.761
-67.522,0.45993,-0.0066499,-2.7226
-67.509,0.53745,-0.0093906,-2.7069
-67.844,0.81881,-0.017506,-2.7086
-67.411,0.61121,-0.011992,-2.9429
-67.31,0.53752,-0.0095254,-2.9751
-67.144,0.54549,-0.010319,-3.1805
-66.824,0.47649,-0.009544,-3.4978
-66.839,0.52509,-0.011099,-3.7372
-66.842,0.55078,-0.01214,-3.9519
-66.995,0.52994,-0.010788,-4.1131
-66.973,0.48479,-0.0095406,-4.2947
-66.977,0.36649,-0.0055527,-4.3376
-67.25,0.40204,-0.0057517,-4.2307
-67.219,0.3595,-0.0045475,-4.2252
-67.386,0.36522,-0.0045409,-4.2649
-67.874,0.51284,-0.007812,-4.1288
-68.527,0.64261,-0.010001,-3.8768
-68.769,0.52087,-0.0053684,-3.7493
-69.076,0.43362,-0.0012493,-3.556
-69.256,0.31019,0.003738,-3.3211
-69.3,0.17317,0.0085466,-3.1491
-69.456,0.15908,0.0094648,-2.9927
-69.586,0.24544,0.0063889,-2.8895
-69.562,0.21537,0.0065062,-2.7662
-69.614,0.29442,0.0034432,-2.6459
-69.254,0.26472,0.0029581,-2.5649
-69.258,0.31561,0.00089613,-2.3301
-69.028,0.21158,0.0032289,-2.1722
-68.974,0.22613,0.0020537,-2.0323
-68.874,0.19649,0.0023594,-2.0167
-68.919,0.21099,0.0018216,-1.9459
-68.902,0.18574,0.0021792,-1.9055
-68.853,0.087474,0.0051454,-1.8504
-68.877,0.129,0.0032734,-1.8433
-68.953,0.15118,0.0025674,-1.8021
-68.982,0.15196,0.0025331,-1.8449
-69.1,0.11054,0.0042321,-1.8467
-69.259,0.20227,0.001314,-1.8812
-69.235,0.16297,0.0019318,-1.9252
-69.246,0.16646,0.0012881,-1.964
-69.547,0.21626,0.00053081,-1.8433
-69.816,0.27978,-0.0008392,-1.6823
-69.723,0.21076,0.0010362,-1.727
-69.614,0.21057,0.00036561,-1.841
-69.399,0.16373,0.00079976,-1.8782
-69.448,0.18708,0.00010941,-1.7756
-69.468,0.1923,8.9033e-05,-1.7393
-69.541,0.13523,0.0025838,-1.6284
-69.69,0.16779,0.0020951,-1.604
-69.704,0.13451,0.0034678,-1.6253
-69.696,0.22753,0.00010296,-1.702
-69.736,0.26101,-0.0012626,-1.6333
-69.63,0.15524,0.00097483,-1.5495
-69.552,0.23128,-0.0026782,-1.5156
-69.626,0.32044,-0.0057066,-1.4812
-69.45,0.30206,-0.0058611,-1.571
-69.389,0.2576,-0.0046478,-1.6044
-69.428,0.19873,-0.0023984,-1.5168
-69.473,0.23981,-0.0037766,-1.5242
-69.345,0.14877,-0.001247,-1.5734
-69.248,0.15209,-0.0017628,-1.6349
-69.258,0.15789,-0.0016512,-1.5923
-69.198,0.16202,-0.0020532,-1.5853
-68.906,0.079469,-0.00042006,-1.7089
-68.757,0.11074,-0.0021411,-1.7748
-68.731,0.10576,-0.0020282,-1.8123
-68.855,0.057817,8.7553e-05,-1.7787
-68.828,0.050967,0.00021246,-1.8067
-68.633,0.15838,-0.0038873,-1.8974
-68.463,0.0082339,0.00095583,-1.9118
-68.52,0.10478,-0.0018164,-1.8555
-68.732,0.055419,0.00080767,-1.7598
-68.752,0.080939,-0.00021265,-1.8362
-68.934,0.028054,0.0021721,-1.9393
-68.903,-0.029405,0.003036,-2.3199
-68.963,-0.015627,0.0027798,-2.491
-69,0.042589,0.0011023,-2.5105
-68.859,-0.010799,0.0025693,-2.7377
-68.737,0.0049812,0.0020645,-2.9046
-68.484,0.033256,0.00020676,-3.1525
-68.082,-0.0099739,4.4335e-08,-3.2471
-67.843,0.018568,-0.0018839,-3.1868
-67.546,-0.053835,-9.6492e-05,-3.099
-67.397,0.027984,-0.0018103,-2.4751
-67.062,-0.017512,-0.0014045,-2.5955
-66.828,0.034204,-0.0034984,-2.6766
-66.721,-0.0071009,-0.0019371,-2.7454
-66.522,-0.058898,0.00016913,-2.6179
-66.291,-0.044097,-0.0005447,-2.5586
-66.31,-0.071058,-0.00020608,-3.0188
-65.503,0.13614,-0.0071431,-1.7823
-65.48,0.10903,-0.0051751,-1.4588
-65.304,-0.065701,-5.3606e-06,-1.9168
-65.022,0.097996,-0.0040448,-0.84823
-65.039,0.043692,-0.002024,-1.1531
-64.556,5.4558e-06,-5.9442e-07,-0.0001542
-64.458,-0.00012598,3.456e-06,-0.00024167
-64.646,-6.7252e-05,1.8952e-06,-0.00020049
-64.138,3.9021e-06,-3.6465e-07,-6.9629e-05
-63.921,-5.4944e-05,1.2585e-06,-0.00015107
-63.585,-3.1672e-06,2.8751e-09,-2.7672e-05
-63.133,-0.0079263,-0.00013073,-0.20007
-63.179,0.039245,-0.0010811,-0.30189
-62.956,0.035733,-0.0007037,-0.36467
-63.29,0.045817,9.1344e-05,-0.68359
-63.264,0.30122,-0.006951,-0.47935
-62.592,0.13537,-0.0025834,-0.45053
-62.526,0.15992,-0.0027967,-0.47728
-62.154,0.10206,-0.0013477,-0.51982
-61.932,0.034349,0.00066851,-0.75474
-61.765,0.0068921,0.0008242,-1.0489
-61.737,0.14327,-0.003558,-1.4008
-61.831,0.1807,-0.0045336,-1.5787
-61.865,0.087525,-0.0016005,-1.7472
-61.971,0.075856,-0.00090809,-1.7885
-61.909,0.060037,0.00023792,-1.9227
-61.538,0.13443,-0.0036409,-2.2186
-61.471,0.21415,-0.0061854,-2.2513
-61.253,-0.011644,0.00093318,-2.4171
-61.858,0.28862,-0.0070991,-2.6449
-61.951,0.32502,-0.0084611,-2.9694
-61.898,0.20082,-0.0047932,-3.3514
-61.842,0.10731,-0.0019053,-3.6511
-62.256,0.34544,-0.0082318,-3.7584
-62.938,0.50507,-0.011025,-3.7253
-63.236,0.52441,-0.010765,-3.7922
-63.229,0.49457,-0.0095392,-3.8876
-63.427,0.6479,-0.014033,-3.9592
-63.551,0.60776,-0.011904,-3.9969
-63.571,0.63185,-0.012136,-4.3315
-63.52,0.72705,-0.015669,-4.7965
-63.682,0.63755,-0.011717,-4.9543
-63.846,0.54816,-0.0075445,-4.9989
-64.056,0.43732,-0.0031277,-5
-64.691,0.53007,-0.0051575,-4.9772
-64.908,0.55924,-0.007057,-4.9619
-64.99,0.14516,0.006011,-4.9729
-65.458,0.43842,-0.0017023,-5
-65.752,0.54136,-0.00386,-5
-65.849,0.48834,-0.0014508,-5
-65.978,0.54125,-0.0028244,-4.9985
-66.116,0.43969,0.0012241,-5
-66.049,0.30431,0.005861,-5
-66.212,0.43935,0.002045,-5
-66.382,0.42907,0.003326,-5
-66.521,0.43461,0.0039716,-5
-66.761,0.46433,0.0041681,-4.9662
-66.692,0.45086,0.0046948,-4.8982
-66.894,0.53071,0.0031023,-4.8397
-66.582,0.39832,0.0066479,-4.8846
-66.449,0.27112,0.010847,-4.895
-66.406,0.40185,0.0063991,-4.9515
-66.167,0.30486,0.0092221,-4.9995
-66.206,0.38006,0.0071936,-5
-66.2,0.26617,0.011413,-5
-66.432,0.28641,0.011867,-5
-66.897,0.36386,0.01109,-5
-67.29,0.50716,0.0076535,-5
-66.062,0.14165,0.016283,-5
-66.076,0.10938,0.017526,-5
